"metabolite"	"pubchem"	"KEGG_ID"
"1-hexadecanol"	2682	"C00823"
"1-monostearin"	24699	NA
"1,2,4-benzenetriol"	10787	"C02814"
"1,5-anhydroglucitol"	64960	"C07326"
"2-aminoadipic acid"	469	"C00956"
"2-hydroxybutanoic acid"	94318	"C05984"
"2-hydroxyglutaric acid"	43	"C02630"
"2-hydroxyvaleric acid"	98009	NA
"2-ketoadipic acid"	71	"C00322"
"2-ketoglucose dimethylacetal NIST"	159630	NA
"2-oxogluconic acid NIST"	3035456	"C06473"
"3-hydroxybutanoic acid "	11266	"C09074"
"3-phosphoglycerate"	724	"C00197"
"4-hydroxybenzoate"	105001	"C00156"
"5'-deoxy-5'-methylthioadenosine"	439176	"C00170"
"abietic acid"	10569	"C06087"
"adenine"	190	"C00147"
"adenosine"	60961	"C00212"
"adenosine-5-monophosphate"	452850	"C00020"
"adipic acid"	196	"C06104"
"alanine"	5950	"C00041"
"alpha ketoglutaric acid"	51	"C00026"
"aminomalonate"	100714	"C00872"
"arabinose"	229	"C00259"
"arachidic acid"	10467	"C06425"
"arachidonic acid"	444899	"C00219"
"arachidonic acid isomer"	5312542	"C00219"
"arginine + ornithine"	232	"C02385"
"asparagine"	236	"C16438"
"aspartic acid"	5960	"C00049"
"azelaic acid"	2266	"C08261"
"behenic acid"	8215	"C08281"
"benzoic acid"	243	"C00180"
"benzylalcohol"	244	"C00556"
"beta-alanine"	239	"C00099"
"capric acid"	2969	"C01571"
"cholesterol"	5997	"C00187"
"citric acid"	311	"C00158"
"citrulline"	9750	"C00327"
"conduritol-beta-epoxide"	119054	NA
"creatinine"	588	"C00791"
"cysteine"	594	"C00736"
"cysteine-glycine"	439498	"C01419"
"cystine"	67678	"C00491"
"cytidine-5'-diphosphate"	290	"C00112"
"cytidine-5-monophosphate NIST"	6131	"C00055"
"dehydroascorbate"	835	"C05422"
"dihydroabietic acid"	227277	"C17920"
"dodecanol"	8193	"C02277"
"elaidic acid"	5282749	"C01712"
"erythronic acid lactone"	5325915	NA
"ethanolamine"	700	"C00189"
"FAD"	643975	"C00016"
"fructose"	5984	"C02336"
"fucose 1 + rhamnose 2"	94270	"C02985"
"fumaric acid"	444972	"C00122"
"gluconic acid"	604	"C00257"
"glucose"	5793	"C00031"
"glucose-6-phosphate"	5958	"C00092"
"glucuronic acid"	94715	"C00191"
"glutamic acid"	33032	"C00025"
"glutamine"	5961	"C00064"
"glutathione"	124886	"C00051"
"glyceric acid"	439194	"C00258"
"glycerol"	753	"C00116"
"glycerol-alpha-phosphate"	754	"C03189"
"glycerol-beta-phosphate"	2526	"C02979"
"glycine"	750	"C00037"
"glycolic acid"	757	"C00160"
"guanine"	764	"C00242"
"guanosine"	6802	"C00387"
"heptadecanoic acid"	10465	"C08266"
"homoserine"	12647	"C00263"
"hydroxycarbamate NIST"	18931500	NA
"hydroxylamine"	787	"C00192"
"hypoxanthine"	790	"C00262"
"icosenoic acid"	5282767	"C16526"
"idonic acid NIST"	193325	"C00770"
"inosine"	6021	"C00294"
"inosine 5'-monophosphate"	3430	"C00130"
"inositol-4-monophosphate"	440043	"C03546"
"inositol allo-"	892	"C19891"
"inositol myo-"	892	"C00137"
"inulobiose"	439552	"C01711"
"isoleucine"	6306	"C00407"
"isothreonic acid"	151152	"C01620"
"lactic acid"	612	"C01432"
"lauric acid"	3893	"C02679"
"leucine"	6106	"C00123"
"levoglucosan"	2724705	NA
"lignoceric acid"	11197	"C08320"
"linoleic acid"	5280450	"C01595"
"lysine"	5962	"C00047"
"lyxitol"	439255	"C00532"
"malate"	525	"C00149"
"maltose"	6255	"C00208"
"maltotriose"	92146	"C01835"
"mannitol"	6251	"C00392"
"methanolphosphate"	13130	"C10947"
"methionine"	6137	"C00073"
"monopalmitin-1-glyceride"	14900	NA
"myristic acid"	11005	"C06424"
"N-acetyl-D-mannosamine"	65150	"C00645"
"N-acetylaspartate"	65065	"C01042"
"N-methylalanine"	5288725	"C02721"
"nicotinamide"	936	"C00153"
"O-acetylserine"	99478	"C00979"
"octadecanol"	8221	"C05933"
"oleic acid"	445639	"C00712"
"ornithine"	6262	"C00077"
"oxalic acid"	971	"C00209"
"oxoproline"	7405	"C01879"
"p-hydroquinone"	785	"C00530"
"palmitic acid"	985	"C00249"
"palmitic acid butyl ester NIST"	8090	"C05795"
"palmitoleic acid"	445638	"C08362"
"pantothenic acid"	6613	"C00864"
"pelargonic acid"	8158	"C01601"
"pentadecanoic acid"	13849	"C16537"
"phenylalanine"	6140	"C00079"
"phosphoethanolamine"	1015	"C00346"
"phosphogluconic acid"	91493	"C00345"
"phosphoric acid"	1004	"C00009"
"phthalic acid"	1017	"C01606"
"pimaric acid NIST"	220338	"C09159"
"proline"	145742	"C00148"
"propane-1,3-diol NIST"	10442	"C02457"
"pseudo uridine"	15047	"C02067"
"putrescine"	1045	"C00134"
"pyrazine 2,5-dihydroxy  NIST"	15532987	NA
"pyrogallol"	1057	"C01108"
"pyrophosphate"	1023	"C00013"
"pyruvate"	1060	"C00022"
"ribonic acid"	5460677	"C01685"
"ribose"	5779	"C00121"
"ribose-5-phosphate"	77982	"C00117"
"ribulose-5-phosphate"	439184	"C00199"
"salicylic acid"	338	"C00805"
"serine"	5951	"C00065"
"sorbitol"	5780	"C00794"
"spermidine"	1102	"C00315"
"stearic acid"	5281	"C01530"
"succinic acid"	1110	"C00042"
"sucrose"	5988	"C00089"
"taurine"	1123	"C00245"
"threitol"	169019	"C16884"
"threonic acid"	439535	"C016202"
"threonine"	6288	"C00188"
"tocopherol alpha"	14985	"C02477"
"tocopherol beta NIST"	8989	"C14152"
"tocopherol gamma-"	92729	"C02483"
"trans-4-hydroxyproline"	5810	"C01157"
"trehalose"	7427	"C01083"
"tryptophan"	6305	"C00078"
"tyrosine"	6057	"C00082"
"uracil"	1174	"C00106"
"urea"	1176	"C00086"
"uric acid"	1175	"C00366"
"uridine"	6029	"C00299"
"uridine-5'-monophosphate"	6030	"C00105"
"valine"	6287	"C00183"
"xanthine"	1188	"C00385"
