2	8
105	9
115	12
6	92
71	14
106	14
15	17
4	73
92	19
9	20
137	21
2	22
106	22
73	22
111	142
9	23
22	23
18	24
71	76
14	157
14	26
15	26
16	108
73	126
113	27
92	28
1	30
15	30
92	31
17	32
26	32
72	33
23	33
19	118
21	118
23	118
32	118
75	128
158	128
32	128
126	77
106	37
5	38
7	38
126	38
14	129
158	129
30	129
8	39
142	39
26	39
31	39
93	40
23	40
28	40
78	40
115	153
6	119
20	41
21	41
111	130
36	130
38	130
9	42
14	42
76	42
77	43
38	43
5	45
26	45
38	45
118	96
11	46
21	46
125	81
33	81
145	47
46	47
9	131
11	97
21	97
123	132
8	132
12	132
75	132
33	132
40	132
46	132
19	114
76	114
145	48
80	48
43	48
132	48
0	98
123	98
72	98
111	82
12	82
28	82
118	82
37	82
145	51
76	51
106	84
25	84
27	84
28	84
10	52
125	52
23	54
42	54
1	138
6	138
13	138
20	138
82	138
51	138
13	151
92	85
24	55
52	55
53	55
29	86
49	86
31	56
130	56
84	56
4	133
115	57
77	57
45	57
48	58
85	58
92	59
113	59
117	60
123	87
2	148
125	148
142	148
81	148
108	61
123	100
113	100
142	100
78	88
42	88
51	88
86	88
56	88
20	141
108	141
132	63
95	89
81	89
128	90
42	90
52	90
87	90
94	65
55	65
4	101
75	101
142	66
127	66
50	66
114	102
1	136
142	112
146	150
142	67
87	67
9	68
142	68
147	68
55	68
58	68
19	69
33	69
80	69
48	69
86	69
65	69
14	134
130	134
145	103
38	103
12	70
116	70
43	70
16	144
50	144
95	120
